…
``` r
library(canwqdata)
library(tidyverse)
#> Warning: package 'purrr' was built under R version 4.4.3
#> Warning: package 'lubridate' was built under R version 4.4.3
```

The first thing you will probably want to do is get a list of the
available BC sites and associated metadata:

``` r
sites <- wq_sites()

sites
#> # A tibble: 50 × 19
#>    SITE_NO    SITE_NAME    SITE_NOM_FR SITE_TYPE SITE_DESC SITE_DESC_FR LATITUDE
#>    <chr>      <chr>        <chr>       <chr>     <chr>     <chr>           <dbl>
#>  1 AK08DC0001 SALMON RIVE… RIVIÈRE SA… RIVER OR… SITE IS … EN AMONT DE…     55.9
#>  2 BC07FB0005 MURRAY RIVE… RIVIÈRE MU… RIVER OR… SITE IS … <NA>             55.6
#>  3 BC07FD0005 PEACE RIVER… RIVIÈRE PE… RIVER OR… AT 203 R… AU PONT DE …     56.1
#>  4 BC08CG0001 ISKUT RIVER… RIVIÈRE IS… RIVER OR… SITE IS … EN AVAL DE …     56.7
#>  5 BC08EE0009 BULKLEY RIV… BULKLEY RI… RIVER OR… SAMPLED … <NA>             54.8
#>  6 BC08EF0001 SKEENA RIVE… RIVIÈRE SK… RIVER OR… AT USK F… AU NIVEAU D…     54.6
#>  7 BC08FC0001 DEAN RIVER … RIVIÈRE DE… RIVER OR… SAMPLED … <NA>             52.5
#>  8 BC08GA0010 CHEAKAMUS R… RIVIÈRE CH… RIVER OR… SAMPLED … PRÉLÈVEMENT…     50.1
#>  9 BC08HA0018 COWICHAN RI… RIVIÈRE CO… RIVER OR… SAMPLED … 1 KM EN AVA…     48.8
#> 10 BC08HB0018 TSOLUM RIVE… RIVIÈRE TS… RIVER OR… RIVER AC… L'ACCÈS À L…     49.8
#> # ℹ 40 more rows
#> # ℹ 12 more variables: LONGITUDE <dbl>, DATUM <chr>, PROV_TERR <chr>,
#> #   PROV_TERR_FR <chr>, PEARSEDA <chr>, PEARSEDA_FR <chr>, OCEANDA <chr>,
#> #   OCEANDA_FR <chr>, DATA_URL <chr>, DATA_URL_FR <chr>, OPEN_DATA_URL <chr>,
#> #   csv_path <chr>
```

Then get some data from a particular station:

`BC08EF0001` is a site in BC called *Skeena River at Usk*

``` r
skeena_river <- wq_site_data("BC08EF0001")

skeena_river
#> # A tibble: 24,901 × 12
#>    SITE_NO    DATE_TIME_HEURE     FLAG_MARQUEUR VALUE_VALEUR SDL_LDE MDL_LDM
#>    <chr>      <dttm>              <chr>                <dbl>   <dbl>   <dbl>
#>  1 BC08EF0001 2000-01-10 10:00:00 <NA>               51.6     0.5         NA
#>  2 BC08EF0001 2000-01-10 10:00:00 <NA>                0.059   0.002       NA
#>  3 BC08EF0001 2000-01-10 10:00:00 <NA>                0.0238  0.0002      NA
#>  4 BC08EF0001 2000-01-10 10:00:00 <                   0.05    0.05        NA
#>  5 BC08EF0001 2000-01-10 10:00:00 <                   0.05    0.05        NA
#>  6 BC08EF0001 2000-01-10 10:00:00 <                   0.0001  0.0001      NA
#>  7 BC08EF0001 2000-01-10 10:00:00 <NA>               18.2     0.1         NA
#>  8 BC08EF0001 2000-01-10 10:00:00 <NA>               11.6     0.5         NA
#>  9 BC08EF0001 2000-01-10 10:00:00 <NA>                1.9     0.5         NA
#> 10 BC08EF0001 2000-01-10 10:00:00 <NA>                0.7     0.1         NA
#> # ℹ 24,891 more rows
#> # ℹ 6 more variables: VMV_CODE <chr>, UNIT_UNITE <chr>, VARIABLE <chr>,
#> #   VARIABLE_FR <chr>, STATUS_STATUT <chr>, SAMPLE_ID_ECHANTILLON <chr>
```

We can also get data from more than one station:

``` r
wq_site_data(c("BC08NF0001", "BC08NM0160"))
#> # A tibble: 28,532 × 12
#>    SITE_NO    DATE_TIME_HEURE     FLAG_MARQUEUR VALUE_VALEUR SDL_LDE MDL_LDM
#>    <chr>      <dttm>              <chr>                <dbl>   <dbl>   <dbl>
#>  1 BC08NF0001 2000-01-04 09:45:00 <NA>              168       0.5         NA
#>  2 BC08NF0001 2000-01-04 09:45:00 <NA>                0.009   0.002       NA
#>  3 BC08NF0001 2000-01-04 09:45:00 <NA>              104       0.01        NA
#>  4 BC08NF0001 2000-01-04 09:45:00 <NA>                0.105   0.0002      NA
#>  5 BC08NF0001 2000-01-04 09:45:00 <                   0.002   0.002       NA
#>  6 BC08NF0001 2000-01-04 09:45:00 <                   0.05    0.05        NA
#>  7 BC08NF0001 2000-01-04 09:45:00 <NA>                2.66    0.07        NA
#>  8 BC08NF0001 2000-01-04 09:45:00 <                   0.05    0.05        NA
#>  9 BC08NF0001 2000-01-04 09:45:00 <                   0.005   0.005       NA
#> 10 BC08NF0001 2000-01-04 09:45:00 <                   0.0001  0.0001      NA
#> # ℹ 28,522 more rows
#> # ℹ 6 more variables: VMV_CODE <chr>, UNIT_UNITE <chr>, VARIABLE <chr>,
#> #   VARIABLE_FR <chr>, STATUS_STATUT <chr>, SAMPLE_ID_ECHANTILLON <chr>
```
…
